…
    library(sf)

    ## Linking to GEOS 3.10.2, GDAL 3.4.2, PROJ 8.2.1; sf_use_s2() is TRUE

    df_sf <- read_sf("data/dataNUTS3/NUTS_RG_10M_2013.shp")
    df_sf

    ## Simple feature collection with 1951 features and 4 fields
    ## Geometry type: MULTIPOLYGON
    ## Dimension:     XY
    ## Bounding box:  xmin: -63.08826 ymin: -21.38731 xmax: 55.83663 ymax: 71.17354
    ## Geodetic CRS:  ETRS89
    ## # A tibble: 1,951 × 5
    ##    NUTS_ID STAT_LEVL_ SHAPE_AREA SHAPE_LEN                              geometry
    ##    <chr>        <int>      <dbl>     <dbl>                    <MULTIPOLYGON [°]>
    ##  1 AT               0    10.0        23.9  (((15.15733 48.99178, 15.16025 48.94…
    ##  2 AT1              1     2.85       11.2  (((15.15733 48.99178, 15.16025 48.94…
    ##  3 AT11             2     0.473       5.82 (((17.09271 48.09965, 17.06741 48.03…
    ##  4 AT111            3     0.0866      1.23 (((16.64622 47.4466, 16.57575 47.406…
    ##  5 AT112            3     0.212       2.81 (((17.1608 48.00666, 17.09466 47.970…
    ##  6 AT113            3     0.175       2.30 (((16.43376 47.35292, 16.48374 47.28…
    ##  7 AT12             2     2.33        9.92 (((15.15733 48.99178, 15.16025 48.94…
    ##  8 AT121            3     0.404       3.75 (((15.50768 48.3196, 15.52095 48.284…
    ##  9 AT122            3     0.401       3.41 (((16.38889 47.8816, 16.35772 47.866…
    ## 10 AT123            3     0.148       2.37 (((15.99565 48.14571, 15.91586 48.08…
    ## # … with 1,941 more rows

    df_sf <- df_sf %>% 
      left_join(data, by="NUTS_ID") 

    df_sf

    ## Simple feature collection with 1951 features and 23 fields
    ## Geometry type: MULTIPOLYGON
    ## Dimension:     XY
    ## Bounding box:  xmin: -63.08826 ymin: -21.38731 xmax: 55.83663 ymax: 71.17354
    ## Geodetic CRS:  ETRS89
    ## # A tibble: 1,951 × 24
    ##    NUTS_ID STAT_LEVL_ SHAPE_AREA SHAPE_LEN                        geometry  year
    ##    <chr>        <int>      <dbl>     <dbl>              <MULTIPOLYGON [°]> <int>
    ##  1 AT               0    10.0        23.9  (((15.15733 48.99178, 15.16025…    NA
    ##  2 AT1              1     2.85       11.2  (((15.15733 48.99178, 15.16025…    NA
    ##  3 AT11             2     0.473       5.82 (((17.09271 48.09965, 17.06741…    NA
    ##  4 AT111            3     0.0866      1.23 (((16.64622 47.4466, 16.57575 …  2012
    ##  5 AT112            3     0.212       2.81 (((17.1608 48.00666, 17.09466 …  2012
    ##  6 AT113            3     0.175       2.30 (((16.43376 47.35292, 16.48374…  2012
    ##  7 AT12             2     2.33        9.92 (((15.15733 48.99178, 15.16025…    NA
    ##  8 AT121            3     0.404       3.75 (((15.50768 48.3196, 15.52095 …  2012
    ##  9 AT122            3     0.401       3.41 (((16.38889 47.8816, 16.35772 …  2012
    ## 10 AT123            3     0.148       2.37 (((15.99565 48.14571, 15.91586…  2012
    ## # … with 1,941 more rows, and 18 more variables: alpine <chr>, category <fct>,
    ## #   pcgdp <dbl>, employ_1564 <dbl>, employ_1564_male <dbl>,
    ## #   employ_1564_female <dbl>, employ_5564 <dbl>, unempl <dbl>, educ_2564 <dbl>,
    ## #   fertility <dbl>, pop <dbl>, pop_dens <dbl>, ppopGE65 <dbl>, ppopLT15 <dbl>,
    ## #   research_exp <dbl>, state <fct>, pop_dens_log <dbl>, pcgdp_log <dbl>
…
# Point data

    kc = read_sf("data/kingcounty/kc_house.shp")
    kc

    ## Simple feature collection with 21613 features and 21 fields
    ## Geometry type: POINT
    ## Dimension:     XY
    ## Bounding box:  xmin: -122.519 ymin: 47.1559 xmax: -121.315 ymax: 47.7776
    ## Geodetic CRS:  WGS 84
    ## # A tibble: 21,613 × 22
    ##           id date   price bedrooms bathrooms sqft_liv sqft_lot floors waterfront
    ##        <dbl> <chr>  <dbl>    <dbl>     <dbl>    <dbl>    <dbl>  <dbl>      <dbl>
    ##  1    7.13e9 2014… 2.22e5        3         1     1180     5650      1          0
    ##  2    6.41e9 2014… 5.38e5        3         2     2570     7242      2          0
    ##  3    5.63e9 2015… 1.8 e5        2         1      770    10000      1          0
    ##  4    2.49e9 2014… 6.04e5        4         3     1960     5000      1          0
    ##  5    1.95e9 2015… 5.1 e5        3         2     1680     8080      1          0
    ##  6    7.24e9 2014… 1.23e6        4         4     5420   101930      1          0
    ##  7    1.32e9 2014… 2.58e5        3         2     1715     6819      2          0
    ##  8    2.01e9 2015… 2.92e5        3         1     1060     9711      1          0
    ##  9    2.41e9 2015… 2.30e5        3         1     1780     7470      1          0
    ## 10    3.79e9 2015… 3.23e5        3         2     1890     6560      2          0
    ## # … with 21,603 more rows, and 13 more variables: view <dbl>, condition <dbl>,
    ## #   grade <dbl>, sqft_above <dbl>, sqft_basmt <dbl>, yr_built <dbl>,
    ## #   yr_renov <dbl>, zipcode <dbl>, lat <dbl>, long <dbl>, sqft_liv15 <dbl>,
    ## #   sqft_lot15 <dbl>, geometry <POINT [°]>
…
